{
    "Active": true,
    "Alive": true,
    "Components": [
        {
            "Enabled": true,
            "GlobalComponent": false,
            "Name": "Unnamed",
            "Orientation": 0.0,
            "RTTI Type": "AEX::TransformComp",
            "Removable": true,
            "Scale": {
                "x": 1.0,
                "y": 1.0
            },
            "Translation": {
                "x": -26.184967041015625,
                "y": 13.127662658691406
            },
            "TranslationZ": {
                "x": -26.184967041015625,
                "y": 13.127662658691406,
                "z": 0.0
            }
        },
        {
            "Color": {
                "a": 1.0,
                "b": 1.0,
                "g": 1.0,
                "r": 1.0
            },
            "Enabled": true,
            "Flip X": false,
            "Flip Y": false,
            "GlobalComponent": false,
            "Meta File": "data\\Textures\\bullet.meta",
            "Name": "Unnamed",
            "RTTI Type": "AEX::SpriteComp",
            "Removable": true,
            "Texture Size": {
                "x": 1.0,
                "y": 1.0
            },
            "Visible": true,
            "WrapMethod": {
                "x": false,
                "y": true
            },
            "Wrappable": {
                "x": false,
                "y": true
            }
        },
        {
            "ColPos": {
                "x": 0.0,
                "y": 0.0,
                "z": 0.0
            },
            "Enabled": true,
            "Ghost": true,
            "GlobalComponent": false,
            "Is AABB": true,
            "Name": "Unnamed",
            "Offset": {
                "x": 0.0,
                "y": 0.0
            },
            "Orientation": 0.0,
            "RTTI Type": "AEX::BoxCollider",
            "Removable": true,
            "Scale": {
                "x": 0.6499999761581421,
                "y": 0.75
            },
            "collision group": "Bullet"
        },
        {
            "Acceleration": {
                "x": 0.0,
                "y": 0.0
            },
            "Bounce": false,
            "Drag": 0.9900000095367432,
            "Dynamic State": 1,
            "Enabled": true,
            "GlobalComponent": false,
            "InvMass": 0.0,
            "Name": "Unnamed",
            "PrevPosition": {
                "x": 0.0,
                "y": 0.0,
                "z": 0.0
            },
            "RTTI Type": "AEX::Rigidbody",
            "Removable": true,
            "Velocity": {
                "x": 0.0,
                "y": 0.0
            },
            "mIgnoreGravity": false
        },
        {
            "Enabled": true,
            "GlobalComponent": false,
            "Is supershot": false,
            "Name": "Unnamed",
            "RTTI Type": "BulletLogic",
            "Removable": true,
            "initScale": {
                "x": 0.0,
                "y": 0.0
            },
            "maxScale": {
                "x": 1.0,
                "y": 1.0
            },
            "timetoscale": 0.20000000298023224
        },
        {
            "Color": {
                "a": 1.0,
                "b": 1.0,
                "g": 1.0,
                "r": 1.0
            },
            "EmitterProperties": {
                "AngDragRange": {
                    "end": {
                        "max": 0.9800000190734863,
                        "min": 0.9800000190734863
                    },
                    "start": {
                        "max": 0.9800000190734863,
                        "min": 0.9800000190734863
                    }
                },
                "AngVelRange": {
                    "end": {
                        "max": 0.0,
                        "min": 0.0
                    },
                    "start": {
                        "max": 0.0,
                        "min": 0.0
                    }
                },
                "ColorRange": {
                    "end": {
                        "max": {
                            "a": 1.0,
                            "b": 1.0,
                            "g": 0.9999997019767761,
                            "r": 0.9999899864196777
                        },
                        "min": {
                            "a": 1.0,
                            "b": 1.0,
                            "g": 0.9999979138374329,
                            "r": 0.9999899864196777
                        }
                    },
                    "start": {
                        "max": {
                            "a": 1.0,
                            "b": 1.0,
                            "g": 0.9999997019767761,
                            "r": 0.9999899864196777
                        },
                        "min": {
                            "a": 1.0,
                            "b": 1.0,
                            "g": 0.9999997019767761,
                            "r": 0.9999899864196777
                        }
                    }
                },
                "DragRange": {
                    "end": {
                        "max": 0.0,
                        "min": 0.0
                    },
                    "start": {
                        "max": 0.9800000190734863,
                        "min": 0.9800000190734863
                    }
                },
                "EmitRate": 1,
                "EmitShapeAngle": {
                    "max": 135.0,
                    "min": 45.0
                },
                "EmitShapeFill": false,
                "EmitShapeLineEnd": {
                    "x": 0.0,
                    "y": 0.0
                },
                "EmitShapeLineStart": {
                    "x": 0.0,
                    "y": 0.0
                },
                "EmitShapeOffset": {
                    "x": 0.0,
                    "y": 0.0
                },
                "EmitShapeSize": {
                    "x": 2.0,
                    "y": 2.0
                },
                "EmitShapeType": 0,
                "EmitterStates": {
                    "AnimatePhxProperties": true,
                    "AnimateProperties": true,
                    "LockedRotation": true,
                    "UsePhysics": true
                },
                "Enabled": true,
                "LifeTimeRange": {
                    "max": 0.20000000298023224,
                    "min": 0.10000000149011612
                },
                "MaxActiveCount": -1,
                "ParticleOffset": {
                    "x": 0.0,
                    "y": 0.0
                },
                "RenderFront": false,
                "RotRange": {
                    "end": {
                        "max": 225.0,
                        "min": 135.0
                    },
                    "start": {
                        "max": 45.0,
                        "min": 0.0
                    }
                },
                "ScaleRange": {
                    "end": {
                        "max": {
                            "x": 0.0,
                            "y": 0.0
                        },
                        "min": {
                            "x": 0.0,
                            "y": 0.0
                        }
                    },
                    "start": {
                        "max": {
                            "x": 0.10000000149011612,
                            "y": 0.10000000149011612
                        },
                        "min": {
                            "x": 0.10000000149011612,
                            "y": 0.10000000149011612
                        }
                    }
                },
                "VelRange": {
                    "end": {
                        "max": {
                            "x": 0.0,
                            "y": 0.0
                        },
                        "min": {
                            "x": 0.0,
                            "y": 0.0
                        }
                    },
                    "start": {
                        "max": {
                            "x": -1.0,
                            "y": -0.25
                        },
                        "min": {
                            "x": -1.0,
                            "y": 0.25
                        }
                    }
                }
            },
            "Enabled": true,
            "Flip X": false,
            "Flip Y": false,
            "GlobalComponent": false,
            "Meta File": "data\\Textures\\bullet.meta",
            "Name": "Unnamed",
            "RTTI Type": "ParticleEmitter",
            "Removable": true,
            "Texture Size": {
                "x": 1.0,
                "y": 1.0
            },
            "Visible": true
        }
    ],
    "Enabled": false,
    "Name": "bullet",
    "RTTI Type": "AEX::GameObject",
    "Saved To Archetype": true,
    "Selectable": true
}