{
    "Active": true,
    "Alive": true,
    "Components": [
        {
            "Enabled": true,
            "GlobalComponent": false,
            "Name": "Unnamed",
            "Orientation": 0.0,
            "RTTI Type": "AEX::TransformComp",
            "Removable": true,
            "Scale": {
                "x": 0.10000000149011612,
                "y": 0.10000000149011612
            },
            "Translation": {
                "x": 1.7832233905792236,
                "y": -0.4924599528312683
            },
            "TranslationZ": {
                "x": 1.7832233905792236,
                "y": -0.4924599528312683,
                "z": 0.0
            }
        },
        {
            "Color": {
                "a": 1.0,
                "b": 0.5196078419685364,
                "g": 0.30021312832832336,
                "r": 0.26235103607177734
            },
            "Enabled": true,
            "Flip X": false,
            "Flip Y": false,
            "GlobalComponent": false,
            "Meta File": "data\\Textures\\FinalBoss\\white.meta",
            "Name": "Unnamed",
            "RTTI Type": "AEX::SpriteComp",
            "Removable": true,
            "Texture Size": {
                "x": 1.0,
                "y": 1.0
            },
            "Visible": true,
            "WrapMethod": {
                "x": false,
                "y": false
            },
            "Wrappable": {
                "x": false,
                "y": false
            }
        },
        {
            "Enabled": true,
            "GlobalComponent": false,
            "Name": "Unnamed",
            "RTTI Type": "LifeTime",
            "Removable": true,
            "Time to die": 1.0
        }
    ],
    "Enabled": false,
    "Name": "Warning",
    "RTTI Type": "AEX::GameObject",
    "Saved To Archetype": true,
    "Selectable": true
}